…
``` r
#join the datasets by full_join
bakers_bakes_df = 
  full_join(bakers_data, bakes_data, by = c("baker", "series")) |>
  relocate(baker_name,baker,baker_age,baker_occupation,hometown,series,episode,signature_bake,show_stopper)

#check for completeness and correctness of data
anti_join(bakers_data, bakes_data, by = c("baker", "series"))
```

    ## # A tibble: 26 × 6
    ##    baker_name          baker  series baker_age baker_occupation         hometown
    ##    <chr>               <chr>   <dbl>     <dbl> <chr>                    <chr>   
    ##  1 Alice Fevronia      Alice      10        28 Geography teacher        Essex   
    ##  2 Amelia LeBruin      Amelia     10        24 Fashion designer         Halifax 
    ##  3 Antony Amourdoux    Antony      9        30 Banker                   London  
    ##  4 Briony Williams     Briony      9        33 Full-time parent         Bristol 
    ##  5 Dan Beasley-Harling Dan         9        36 Full-time parent         London  
    ##  6 Dan Chambers        Dan        10        32 Support worker           Rotherh…
    ##  7 David Atherton      David      10        36 International health ad… Whitby  
    ##  8 Helena Garcia       Helena     10        40 Online project manager   Leeds   
    ##  9 Henry Bird          Henry      10        20 Student                  Durham  
    ## 10 Imelda McCarron     Imelda      9        33 Countryside recreation … County …
    ## # ℹ 16 more rows
…
``` r
#join results data with bakers_bakes_df
bakers_bakes_results_df = 
full_join(bakers_bakes_df, results_data, by=c("baker","series","episode"))
write_csv(bakers_bakes_results_df,file="./data/bakers_bakes_results_df.csv")

#check for completeness of data
anti_join(bakers_bakes_df, results_data, by = c("baker","series","episode"))
```

    ## # A tibble: 34 × 9
    ##    baker_name          baker  baker_age baker_occupation hometown series episode
    ##    <chr>               <chr>      <dbl> <chr>            <chr>     <dbl>   <dbl>
    ##  1 Alice Fevronia      Alice         28 Geography teach… Essex        10      NA
    ##  2 Amelia LeBruin      Amelia        24 Fashion designer Halifax      10      NA
    ##  3 Antony Amourdoux    Antony        30 Banker           London        9      NA
    ##  4 Briony Williams     Briony        33 Full-time parent Bristol       9      NA
    ##  5 Dan Beasley-Harling Dan           36 Full-time parent London        9      NA
    ##  6 Dan Chambers        Dan           32 Support worker   Rotherh…     10      NA
    ##  7 David Atherton      David         36 International h… Whitby       10      NA
    ##  8 Helena Garcia       Helena        40 Online project … Leeds        10      NA
    ##  9 Henry Bird          Henry         20 Student          Durham       10      NA
    ## 10 Imelda McCarron     Imelda        33 Countryside rec… County …      9      NA
    ## # ℹ 24 more rows
    ## # ℹ 2 more variables: signature_bake <chr>, show_stopper <chr>

``` r
anti_join(results_data, bakers_bakes_df,by = c("baker","series","episode"))
```

    ## # A tibble: 596 × 5
    ##    series episode baker    technical result
    ##     <dbl>   <dbl> <chr>        <dbl> <chr> 
    ##  1      1       2 Lea             NA <NA>  
    ##  2      1       2 Mark            NA <NA>  
    ##  3      1       3 Annetha         NA <NA>  
    ##  4      1       3 Lea             NA <NA>  
    ##  5      1       3 Louise          NA <NA>  
    ##  6      1       3 Mark            NA <NA>  
    ##  7      1       4 Annetha         NA <NA>  
    ##  8      1       4 Jonathan        NA <NA>  
    ##  9      1       4 Lea             NA <NA>  
    ## 10      1       4 Louise          NA <NA>  
    ## # ℹ 586 more rows
…
